0x7ab6
0x4bfe
0x4ab7
0x48b8
0x4bac
0x4bb0
0x4dbb
0x0ebc
0x4baa
0x59bb
0x4bb0
0x0eb8
0x47bd
0x5ab7
0x41b0
0x0ebf
0x40ba
0x0eac
0x4bbf
0x42b7
0x5aa7
0x11fe
0x68b7
0x4daa
0x47b1
0x40fe
0x46bf
0x5dfe
0x5ab1
0x0eb3
0x4fb5
0x4bfe
0x5dbb
0x40ad
0x4bde
