0xb3b0
0x99fe
0x93b8
0xdcaa
0x94bb
0xdcad
0x85b3
0x8caa
0x93b3
0x8ffe
0x93b8
0xdcbf
0x92fe
0x9dae
0x8eb1
0x9dbd
0x94b7
0x92b9
0xdcb0
0x99ac
0x8ab1
0x89ad
0xdcbc
0x8ebb
0x9db5
0x98b1
0x8bb0
0xdcb7
0x8ffe
0x88b6
0x99fe
0x9ebb
0x90b7
0x99b8
0xdcaa
0x94bf
0x88fe
0x93b0
0x99f9
0x8ffe
0x8bb1
0x8eb5
0xdcb7
0x8ffe
0x88bb
0x8eac
0x95bc
0x90a7
0xdcb7
0x91ae
0x93ac
0x88bf
0x92aa
